<svg width="27" height="27" viewBox="0 0 27 27" fill="none" xmlns="http://www.w3.org/2000/svg">
<path d="M14.9997 26.1893V12.0001H26.3511V26.1893H14.9997ZM0.810547 14.8379V0.648743H12.1619V14.8379H0.810547ZM9.32406 12.0001V3.48658H3.64838V12.0001H9.32406ZM0.810547 26.1893V17.6758H12.1619V26.1893H0.810547ZM3.64838 23.3514H9.32406V20.5136H3.64838V23.3514ZM17.8376 23.3514H23.5133V14.8379H17.8376V23.3514ZM14.9997 0.648743H26.3511V9.16226H14.9997V0.648743ZM17.8376 3.48658V6.32442H23.5133V3.48658H17.8376Z" fill="#3B5998"/>
</svg>
